[Ivy]
16EC600CE4FFE654 3.20 #module
>Proto >Proto Collection #zClass
He0 Home Big #zClass
He0 B #cInfo
He0 #process
He0 @TextInP .resExport .resExport #zField
He0 @TextInP .type .type #zField
He0 @TextInP .processKind .processKind #zField
He0 @AnnotationInP-0n ai ai #zField
He0 @MessageFlowInP-0n messageIn messageIn #zField
He0 @MessageFlowOutP-0n messageOut messageOut #zField
He0 @TextInP .xml .xml #zField
He0 @TextInP .responsibility .responsibility #zField
He0 @StartRequest f0 '' #zField
He0 @EndTask f1 '' #zField
He0 @RichDialog f3 '' #zField
He0 @PushWFArc f4 '' #zField
He0 @PushWFArc f2 '' #zField
>Proto He0 He0 Home #zField
He0 f0 outLink start.ivp #txt
He0 f0 type vn.ivy.support.devtool.HomeData #txt
He0 f0 inParamDecl '<> param;' #txt
He0 f0 actionDecl 'vn.ivy.support.devtool.HomeData out;
' #txt
He0 f0 guid 16EC600CE75E9D86 #txt
He0 f0 requestEnabled true #txt
He0 f0 triggerEnabled false #txt
He0 f0 callSignature start() #txt
He0 f0 caseData businessCase.attach=true #txt
He0 f0 @C|.xml '<?xml version="1.0" encoding="UTF-8" standalone="yes"?>
<elementInfo>
    <language>
        <name>start.ivp</name>
    </language>
</elementInfo>
' #txt
He0 f0 @C|.responsibility Everybody #txt
He0 f0 51 83 26 26 14 0 #rect
He0 f0 @|StartRequestIcon #fIcon
He0 f1 type vn.ivy.support.devtool.HomeData #txt
He0 f1 51 339 26 26 14 0 #rect
He0 f1 @|EndIcon #fIcon
He0 f3 targetWindow NEW #txt
He0 f3 targetDisplay TOP #txt
He0 f3 richDialogId vn.ivy.support.devtool.Home #txt
He0 f3 startMethod start() #txt
He0 f3 type vn.ivy.support.devtool.HomeData #txt
He0 f3 requestActionDecl '<> param;' #txt
He0 f3 responseActionDecl 'vn.ivy.support.devtool.HomeData out;
' #txt
He0 f3 responseMappingAction 'out=in;
' #txt
He0 f3 isAsynch false #txt
He0 f3 isInnerRd false #txt
He0 f3 userContext '* ' #txt
He0 f3 46 212 36 24 20 -2 #rect
He0 f3 @|RichDialogIcon #fIcon
He0 f4 expr out #txt
He0 f4 64 109 64 212 #arcP
He0 f2 expr out #txt
He0 f2 64 236 64 339 #arcP
>Proto He0 .type vn.ivy.support.devtool.HomeData #txt
>Proto He0 .processKind NORMAL #txt
>Proto He0 0 0 32 24 18 0 #rect
>Proto He0 @|BIcon #fIcon
He0 f0 mainOut f4 tail #connect
He0 f4 head f3 mainIn #connect
He0 f3 mainOut f2 tail #connect
He0 f2 head f1 mainIn #connect
